ex-2/partC/test-ex1-1-check4.log
# vsim -assertdebug -coverage -c test_ex1_1 -l test-ex1-1-check4.log -do " run -all; quit" 
# Start time: 22:58:57 on Feb 26,2023
# ** Note: (vsim-3812) Design is being optimized...
# ** Note: (vopt-143) Recognized 1 FSM in module "ex1_1(fast)".
# //  Questa Sim
# //  Version 2021.4_2 linux Dec  4 2021
# //
# //  Copyright 1991-2021 Mentor Graphics Corporation
# //  All Rights Reserved.
# //
# //  QuestaSim and its associated documentation contain trade
# //  secrets and commercial or financial information that are the property of
# //  Mentor Graphics Corporation and are privileged, confidential,
# //  and exempt from disclosure under the Freedom of Information Act,
# //  5 U.S.C. Section 552. Furthermore, this information
# //  is prohibited from disclosure under the Trade Secrets Act,
# //  18 U.S.C. Section 1905.
# //
# Loading sv_std.std
# Loading work.test_ex1_1(fast)
# Loading work.ex1_1(fast)
# Loading work.ex1_1_property(fast)
# ** Warning: (vsim-2685) [TFMPC] - Too few port connections for 'dut'.  Expected 14, found 6.
#    Time: 0 ns  Iteration: 0  Instance: /test_ex1_1/dut File: test-ex1-1.sv Line: 9
# ** Warning: (vsim-3722) test-ex1-1.sv(9): [TFMPC] - Missing connection for port 'alu_r_1'.
# ** Warning: (vsim-3722) test-ex1-1.sv(9): [TFMPC] - Missing connection for port 'alu_r_2'.
# ** Warning: (vsim-3722) test-ex1-1.sv(9): [TFMPC] - Missing connection for port 'alu_a_1'.
# ** Warning: (vsim-3722) test-ex1-1.sv(9): [TFMPC] - Missing connection for port 'alu_a_2'.
# ** Warning: (vsim-3722) test-ex1-1.sv(9): [TFMPC] - Missing connection for port 'alu_b_1'.
# ** Warning: (vsim-3722) test-ex1-1.sv(9): [TFMPC] - Missing connection for port 'alu_b_2'.
# ** Warning: (vsim-3722) test-ex1-1.sv(9): [TFMPC] - Missing connection for port 'alu_op_1'.
# ** Warning: (vsim-3722) test-ex1-1.sv(9): [TFMPC] - Missing connection for port 'alu_op_2'.
#  run -all
#          5  rst=0 clk=1 validi=1 DIN=1 valido=x DOUT=x
#         15  rst=1 clk=1 validi=1 DIN=1 valido=0 DOUT=0
#         25  rst=0 clk=1 validi=1 DIN=1 valido=0 DOUT=0
#         35  rst=0 clk=1 validi=0 DIN=2 valido=0 DOUT=0
#         45  rst=0 clk=1 validi=1 DIN=3 valido=0 DOUT=0
#         55  rst=0 clk=1 validi=0 DIN=4 valido=0 DOUT=0
#         65  rst=0 clk=1 validi=1 DIN=5 valido=0 DOUT=0
#         75  rst=0 clk=1 validi=1 DIN=6 valido=0 DOUT=0
#         85  rst=0 clk=1 validi=0 DIN=7 valido=0 DOUT=0
#         95  rst=0 clk=1 validi=0 DIN=8 valido=0 DOUT=0
#        105  rst=0 clk=1 validi=1 DIN=9 valido=0 DOUT=0
#        115  rst=0 clk=1 validi=1 DIN=10 valido=0 DOUT=0
#        125  rst=0 clk=1 validi=1 DIN=11 valido=0 DOUT=0
#        135  rst=0 clk=1 validi=0 DIN=12 valido=1 DOUT=z
#        135  	DOUT TEST FAIL:: data_out should be =101 data_out is=z 
# 
#        145  rst=0 clk=1 validi=1 DIN=13 valido=0 DOUT=z
#        155  rst=0 clk=1 validi=1 DIN=14 valido=0 DOUT=z
#        165  rst=0 clk=1 validi=1 DIN=15 valido=0 DOUT=z
#        175  rst=0 clk=1 validi=1 DIN=16 valido=1 DOUT=z
#        175  	DOUT TEST FAIL:: data_out should be =197 data_out is=z 
# 
#        185  rst=0 clk=1 validi=1 DIN=17 valido=1 DOUT=z
#        185  	DOUT TEST FAIL:: data_out should be =226 data_out is=z 
# 
#        195  rst=0 clk=1 validi=0 DIN=18 valido=1 DOUT=z
#        195  	DOUT TEST FAIL:: data_out should be =257 data_out is=z 
# 
#        205  rst=0 clk=1 validi=1 DIN=19 valido=0 DOUT=z
#        215  rst=0 clk=1 validi=1 DIN=20 valido=0 DOUT=z
#        225  rst=0 clk=1 validi=1 DIN=21 valido=0 DOUT=z
#        235  rst=0 clk=1 validi=1 DIN=22 valido=1 DOUT=z
#        235  	DOUT TEST FAIL:: data_out should be =401 data_out is=z 
# 
#        245  rst=0 clk=1 validi=0 DIN=23 valido=1 DOUT=z
#        245  	DOUT TEST FAIL:: data_out should be =442 data_out is=z 
# 
#        255  rst=0 clk=1 validi=0 DIN=24 valido=0 DOUT=z
#        265  rst=0 clk=1 validi=1 DIN=25 valido=0 DOUT=z
#        275  rst=0 clk=1 validi=1 DIN=26 valido=0 DOUT=z
#        285  rst=0 clk=1 validi=1 DIN=27 valido=0 DOUT=z
#        295  rst=0 clk=1 validi=1 DIN=28 valido=1 DOUT=z
#        295  	DOUT TEST FAIL:: data_out should be =677 data_out is=z 
# 
#        305  rst=0 clk=1 validi=1 DIN=29 valido=1 DOUT=z
#        305  	DOUT TEST FAIL:: data_out should be =730 data_out is=z 
# 
#        315  rst=0 clk=1 validi=1 DIN=30 valido=1 DOUT=z
#        315  	DOUT TEST FAIL:: data_out should be =785 data_out is=z 
# 
#        325  rst=0 clk=1 validi=0 DIN=31 valido=1 DOUT=z
#        325  	DOUT TEST FAIL:: data_out should be =842 data_out is=z 
# 
#        335  rst=0 clk=1 validi=0 DIN=31 valido=0 DOUT=z
# ** Note: Data structure takes 4879708 bytes of memory
#          Process time 0.01 seconds
#          $finish    : test-ex1-1.sv(30)
#    Time: 335 ns  Iteration: 1  Instance: /test_ex1_1
# End time: 22:58:58 on Feb 26,2023, Elapsed time: 0:00:01
# Errors: 0, Warnings: 9
