ex-2/partC/transcript
# vsim -c -coverage alu_tb -do "run 1000ns; coverage report -memory -cvg -details -file coverage_rep.txt;exit" 
# Start time: 22:58:53 on Feb 26,2023
# ** Note: (vsim-3812) Design is being optimized...
# ** Warning: alu_tb.sv(24): (vopt-2240) Treating stand-alone use of function 'randomize' as an implicit VOID cast.
# ** Note: (vsim-12126) Error and warning message counts have been restored: Errors=0, Warnings=1.
# //  Questa Sim
# //  Version 2021.4_2 linux Dec  4 2021
# //
# //  Copyright 1991-2021 Mentor Graphics Corporation
# //  All Rights Reserved.
# //
# //  QuestaSim and its associated documentation contain trade
# //  secrets and commercial or financial information that are the property of
# //  Mentor Graphics Corporation and are privileged, confidential,
# //  and exempt from disclosure under the Freedom of Information Act,
# //  5 U.S.C. Section 552. Furthermore, this information
# //  is prohibited from disclosure under the Trade Secrets Act,
# //  18 U.S.C. Section 1905.
# //
# Loading sv_std.std
# Loading work.alu_tb_sv_unit(fast)
# Loading work.alu_tb(fast)
# Loading std.standard
# Loading std.textio(body)
# Loading ieee.std_logic_1164(body)
# Loading ieee.numeric_std(body)
# Loading work.alu(behavioral)#1
# run 1000ns
#         10  clk=1 a=00000000000000000000000000000000 b=00000000000000000000000000000000 op=000 r=00000000000000000000000000000000
#         30  clk=1 a=00000000000000000000000001000000 b=00000000000000000000000011111001 op=010 r=00000000000000000000000000000000
#         50  clk=1 a=00000000000000000000000000100000 b=00000000000000000000000011011101 op=110 r=11111111111111111111111110111111
#         70  clk=1 a=00000000000000000000000001110001 b=00000000000000000000000000001111 op=111 r=00000000000000000000000011111101
#         90  clk=1 a=00000000000000000000000000010011 b=00000000000000000000000000000111 op=010 r=00000000000000000000000001111110
#        110  clk=1 a=00000000000000000000000001110010 b=00000000000000000000000000100000 op=000 r=11111111111111111111111111101100
#        130  clk=1 a=00000000000000000000000000011110 b=00000000000000000000000001101000 op=000 r=00000000000000000000000010010010
#        150  clk=1 a=00000000000000000000000000101101 b=00000000000000000000000011000111 op=011 r=00000000000000000000000010000110
#        170  clk=1 a=00000000000000000000000000011011 b=00000000000000000000000011011011 op=010 r=11111111111111111111111111111010
#        190  clk=1 a=00000000000000000000000000111101 b=00000000000000000000000000111010 op=010 r=11111111111111111111111111100100
#        210  clk=1 a=00000000000000000000000000100010 b=00000000000000000000000011100100 op=011 r=11111111111111111111111111000010
#        230  clk=1 a=00000000000000000000000001111011 b=00000000000000000000000010111111 op=011 r=11111111111111111111111111011111
#        250  clk=1 a=00000000000000000000000001111000 b=00000000000000000000000011111111 op=111 r=11111111111111111111111111000100
#        270  clk=1 a=00000000000000000000000000001010 b=00000000000000000000000001100000 op=011 r=00000000000000000000000010000111
#        290  clk=1 a=00000000000000000000000000010101 b=00000000000000000000000010111011 op=100 r=11111111111111111111111111111111
#        310  clk=1 a=00000000000000000000000000111010 b=00000000000000000000000001010111 op=100 r=11111111111111111111111101000000
#        330  clk=1 a=00000000000000000000000001100001 b=00000000000000000000000000011010 op=100 r=11111111111111111111111110000000
#        350  clk=1 a=00000000000000000000000000111110 b=00000000000000000000000011010100 op=010 r=11111111111111111111111110000100
#        370  clk=1 a=00000000000000000000000000111111 b=00000000000000000000000001101111 op=100 r=11111111111111111111111111000001
#        390  clk=1 a=00000000000000000000000001010011 b=00000000000000000000000001010000 op=110 r=11111111111111111111111110000000
#        410  clk=1 a=00000000000000000000000000101000 b=00000000000000000000000011111001 op=010 r=00000000000000000000000001010011
#        430  clk=1 a=00000000000000000000000000101010 b=00000000000000000000000000010110 op=001 r=11111111111111111111111111010111
#        450  clk=1 a=00000000000000000000000001101110 b=00000000000000000000000000000010 op=001 r=00000000000000000000000000010100
#        470  clk=1 a=00000000000000000000000001101110 b=00000000000000000000000010110001 op=110 r=00000000000000000000000001101100
#        490  clk=1 a=00000000000000000000000001011001 b=00000000000000000000000000001101 op=010 r=00000000000000000000000011111111
#        510  clk=1 a=00000000000000000000000001011100 b=00000000000000000000000000111000 op=000 r=11111111111111111111111110100110
#        530  clk=1 a=00000000000000000000000001001011 b=00000000000000000000000010100001 op=000 r=00000000000000000000000010010100
#        550  clk=1 a=00000000000000000000000001100100 b=00000000000000000000000011101001 op=010 r=00000000000000000000000011101100
#        570  clk=1 a=00000000000000000000000001101011 b=00000000000000000000000000110001 op=000 r=11111111111111111111111110011011
#        590  clk=1 a=00000000000000000000000000101011 b=00000000000000000000000010101010 op=011 r=00000000000000000000000010011100
#        610  clk=1 a=00000000000000000000000000110100 b=00000000000000000000000001010111 op=110 r=11111111111111111111111111010101
#        630  clk=1 a=00000000000000000000000000101111 b=00000000000000000000000010110111 op=011 r=00000000000000000000000001110111
#        650  clk=1 a=00000000000000000000000000011000 b=00000000000000000000000011111101 op=011 r=11111111111111111111111111011000
#        670  clk=1 a=00000000000000000000000000110000 b=00000000000000000000000000101101 op=111 r=11111111111111111111111111100111
#        690  clk=1 a=00000000000000000000000001010100 b=00000000000000000000000001000110 op=011 r=00000000000000000000000000011101
#        710  clk=1 a=00000000000000000000000000111110 b=00000000000000000000000001011101 op=010 r=11111111111111111111111110111011
#        730  clk=1 a=00000000000000000000000001011010 b=00000000000000000000000001110110 op=010 r=11111111111111111111111111000001
#        750  clk=1 a=00000000000000000000000001110110 b=00000000000000000000000000001000 op=011 r=11111111111111111111111110100101
#        770  clk=1 a=00000000000000000000000000001100 b=00000000000000000000000001011000 op=011 r=11111111111111111111111111111111
#        790  clk=1 a=00000000000000000000000001011001 b=00000000000000000000000010011010 op=001 r=11111111111111111111111111110111
#        810  clk=1 a=00000000000000000000000000111111 b=00000000000000000000000000001011 op=111 r=11111111111111111111111110111111
#        830  clk=1 a=00000000000000000000000001110001 b=00000000000000000000000000101101 op=101 r=00000000000000000000000000110100
#        850  clk=1 a=00000000000000000000000000100111 b=00000000000000000000000011001000 op=010 r=00000000000000000000000000100001
#        870  clk=1 a=00000000000000000000000001110001 b=00000000000000000000000010111100 op=011 r=11111111111111111111111111011000
#        890  clk=1 a=00000000000000000000000000000111 b=00000000000000000000000010110001 op=010 r=11111111111111111111111111001111
#        910  clk=1 a=00000000000000000000000001001110 b=00000000000000000000000001001110 op=010 r=11111111111111111111111111111000
#        930  clk=1 a=00000000000000000000000001010111 b=00000000000000000000000000000010 op=011 r=11111111111111111111111110110001
#        950  clk=1 a=00000000000000000000000001100000 b=00000000000000000000000001100001 op=010 r=11111111111111111111111111111101
#        970  clk=1 a=00000000000000000000000000110010 b=00000000000000000000000000101110 op=001 r=11111111111111111111111110011111
#        990  clk=1 a=00000000000000000000000000111110 b=00000000000000000000000010001101 op=111 r=00000000000000000000000000000100
#  coverage report -memory -cvg -details -file coverage_rep.txt
# ** Warning: (vsim-19053) Option '-file' has been deprecated. Please use option '-output' instead.
# exit
# End time: 22:58:55 on Feb 26,2023, Elapsed time: 0:00:02
# Errors: 0, Warnings: 2
